{
  "dependencies": {
    "mssql1": {
      "resourceId": "/subscriptions/[parameters('subscriptionId')]/resourceGroups/[parameters('resourceGroupName')]/providers/Microsoft.Sql/servers/strvaddressbook/databases/AddressBookDB",
      "type": "mssql.azure",
      "connectionId": "AddressBookDB",
      "secretStore": "AzureAppSettings"
    }
  }
}